%!PS-Adobe-3.0 EPSF-3.0
%%Creator: cairo 1.16.0 (https://cairographics.org)
%%CreationDate: Thu Oct 08 15:41:58 2020
%%Pages: 1
%%DocumentData: Clean7Bit
%%LanguageLevel: 2
%%BoundingBox: 13 30 125 153
%%EndComments
%%BeginProlog
50 dict begin
/q { gsave } bind def
/Q { grestore } bind def
/cm { 6 array astore concat } bind def
/w { setlinewidth } bind def
/J { setlinecap } bind def
/j { setlinejoin } bind def
/M { setmiterlimit } bind def
/d { setdash } bind def
/m { moveto } bind def
/l { lineto } bind def
/c { curveto } bind def
/h { closepath } bind def
/re { exch dup neg 3 1 roll 5 3 roll moveto 0 rlineto
      0 exch rlineto 0 rlineto closepath } bind def
/S { stroke } bind def
/f { fill } bind def
/f* { eofill } bind def
/n { newpath } bind def
/W { clip } bind def
/W* { eoclip } bind def
/BT { } bind def
/ET { } bind def
/BDC { mark 3 1 roll /BDC pdfmark } bind def
/EMC { mark /EMC pdfmark } bind def
/cairo_store_point { /cairo_point_y exch def /cairo_point_x exch def } def
/Tj { show currentpoint cairo_store_point } bind def
/TJ {
  {
    dup
    type /stringtype eq
    { show } { -0.001 mul 0 cairo_font_matrix dtransform rmoveto } ifelse
  } forall
  currentpoint cairo_store_point
} bind def
/cairo_selectfont { cairo_font_matrix aload pop pop pop 0 0 6 array astore
    cairo_font exch selectfont cairo_point_x cairo_point_y moveto } bind def
/Tf { pop /cairo_font exch def /cairo_font_matrix where
      { pop cairo_selectfont } if } bind def
/Td { matrix translate cairo_font_matrix matrix concatmatrix dup
      /cairo_font_matrix exch def dup 4 get exch 5 get cairo_store_point
      /cairo_font where { pop cairo_selectfont } if } bind def
/Tm { 2 copy 8 2 roll 6 array astore /cairo_font_matrix exch def
      cairo_store_point /cairo_font where { pop cairo_selectfont } if } bind def
/g { setgray } bind def
/rg { setrgbcolor } bind def
/d1 { setcachedevice } bind def
/cairo_data_source {
  CairoDataIndex CairoData length lt
    { CairoData CairoDataIndex get /CairoDataIndex CairoDataIndex 1 add def }
    { () } ifelse
} def
/cairo_flush_ascii85_file { cairo_ascii85_file status { cairo_ascii85_file flushfile } if } def
/cairo_image { image cairo_flush_ascii85_file } def
/cairo_imagemask { imagemask cairo_flush_ascii85_file } def
%%EndProlog
%%BeginSetup
%%EndSetup
%%Page: 1 1
%%BeginPageSetup
%%PageBoundingBox: 13 30 125 153
%%EndPageSetup
q 13 30 112 123 rectclip
1 0 0 -1 0 171 cm q
0 0.784314 0 rg
20.836 84.285 52.273 43.371 re f
0 g
0.751178 w
0 J
0 j
[] 0.0 d
4 M q 1 0 0 1 0 0 cm
20.836 84.285 52.273 43.371 re S Q
1 0.627451 0 rg
73.109 84.285 43.184 43.371 re f
0 g
q 1 0 0 1 0 0 cm
73.109 84.285 43.184 43.371 re S Q
0.0431373 0 1 rg
73.109 32.199 43.184 52.086 re f
0 g
q 1 0 0 1 0 0 cm
73.109 32.199 43.184 52.086 re S Q
1 0 0 rg
20.836 32.199 52.273 52.086 re f
0 g
q 1 0 0 1 0 0 cm
20.836 32.199 52.273 52.086 re S Q
q 1 0 0 1 0 0 cm
20.836 32.199 95.457 95.457 re S Q
0 0 1 rg
22.902 127.77 m 22.902 128.914 21.973 129.844 20.824 129.844 c 19.68 129.844
 18.75 128.914 18.75 127.77 c 18.75 126.621 19.68 125.691 20.824 125.691
 c 21.973 125.691 22.902 126.621 22.902 127.77 c h
22.902 127.77 m f
q 1 0 0 1 0 0 cm
22.902 127.77 m 22.902 128.914 21.973 129.844 20.824 129.844 c 19.68 129.844
 18.75 128.914 18.75 127.77 c 18.75 126.621 19.68 125.691 20.824 125.691
 c 21.973 125.691 22.902 126.621 22.902 127.77 c h
22.902 127.77 m S Q
1 0 0 rg
118.059 127.23 m 118.059 128.379 117.129 129.309 115.98 129.309 c 114.836
 129.309 113.906 128.379 113.906 127.23 c 113.906 126.086 114.836 125.156
 115.98 125.156 c 117.129 125.156 118.059 126.086 118.059 127.23 c f
q 1 0 0 1 0 0 cm
118.059 127.23 m 118.059 128.379 117.129 129.309 115.98 129.309 c 114.836
 129.309 113.906 128.379 113.906 127.23 c 113.906 126.086 114.836 125.156
 115.98 125.156 c 117.129 125.156 118.059 126.086 118.059 127.23 c S Q
0 0.784314 0 rg
117.789 32.41 m 117.789 33.559 116.859 34.488 115.715 34.488 c 114.566 
34.488 113.637 33.559 113.637 32.41 c 113.637 31.266 114.566 30.336 115.715
 30.336 c 116.859 30.336 117.789 31.266 117.789 32.41 c f
q 1 0 0 1 0 0 cm
117.789 32.41 m 117.789 33.559 116.859 34.488 115.715 34.488 c 114.566 
34.488 113.637 33.559 113.637 32.41 c 113.637 31.266 114.566 30.336 115.715
 30.336 c 116.859 30.336 117.789 31.266 117.789 32.41 c S Q
1 0.627451 0 rg
23.238 32.41 m 23.238 33.559 22.309 34.488 21.16 34.488 c 20.016 34.488
 19.086 33.559 19.086 32.41 c 19.086 31.266 20.016 30.336 21.16 30.336 c
 22.309 30.336 23.238 31.266 23.238 32.41 c f
q 1 0 0 1 0 0 cm
23.238 32.41 m 23.238 33.559 22.309 34.488 21.16 34.488 c 20.016 34.488
 19.086 33.559 19.086 32.41 c 19.086 31.266 20.016 30.336 21.16 30.336 c
 22.309 30.336 23.238 31.266 23.238 32.41 c S Q
0 g
76.465 84.191 m 76.465 86.262 74.785 87.941 72.715 87.941 c 70.645 87.941
 68.965 86.262 68.965 84.191 c 68.965 82.121 70.645 80.441 72.715 80.441
 c 74.785 80.441 76.465 82.121 76.465 84.191 c h
76.465 84.191 m f
q 1 0 0 1 0 0 cm
76.465 84.191 m 76.465 86.262 74.785 87.941 72.715 87.941 c 70.645 87.941
 68.965 86.262 68.965 84.191 c 68.965 82.121 70.645 80.441 72.715 80.441
 c 74.785 80.441 76.465 82.121 76.465 84.191 c h
76.465 84.191 m S Q
0.749999 w
q 1 0 0 1 0 0 cm
20.355 84.105 m 115.98 84.105 l S Q
q 1 0 0 1 0 0 cm
72.922 127.277 m 72.922 32.008 l S Q
14.742 139.539 m 16.68 139.539 l 16.68 132.867 l 14.57 133.289 l 14.57 
132.211 l 16.664 131.789 l 17.852 131.789 l 17.852 139.539 l 19.789 139.539
 l 19.789 140.539 l 14.742 140.539 l h
14.742 139.539 m f
120.676 136.695 m 124.816 136.695 l 124.816 137.695 l 119.254 137.695 l
 119.254 136.695 l 119.699 136.238 120.309 135.617 121.082 134.836 c 121.863
 134.047 122.352 133.535 122.551 133.305 c 122.934 132.891 123.199 132.535
 123.348 132.242 c 123.504 131.941 123.582 131.648 123.582 131.367 c 123.582
 130.898 123.414 130.52 123.082 130.227 c 122.758 129.938 122.336 129.789
 121.816 129.789 c 121.441 129.789 121.043 129.852 120.629 129.977 c 120.223
 130.102 119.785 130.301 119.316 130.57 c 119.316 129.367 l 119.793 129.18
 120.238 129.039 120.645 128.945 c 121.059 128.844 121.441 128.789 121.785
 128.789 c 122.691 128.789 123.414 129.02 123.957 129.477 c 124.496 129.926
 124.77 130.531 124.77 131.289 c 124.77 131.645 124.699 131.984 124.566 
132.305 c 124.43 132.629 124.184 133.008 123.832 133.445 c 123.727 133.563
 123.414 133.891 122.895 134.43 c 122.371 134.973 121.633 135.727 120.676
 136.695 c h
120.676 136.695 m f
122.875 24.07 m 123.438 24.195 123.875 24.453 124.188 24.836 c 124.508 
25.211 124.672 25.68 124.672 26.242 c 124.672 27.109 124.375 27.781 123.781
 28.258 c 123.188 28.727 122.344 28.961 121.25 28.961 c 120.883 28.961 120.504
 28.922 120.109 28.852 c 119.723 28.781 119.328 28.672 118.922 28.523 c 
118.922 27.383 l 119.242 27.57 119.598 27.719 119.984 27.82 c 120.379 27.914
 120.789 27.961 121.219 27.961 c 121.957 27.961 122.52 27.816 122.906 27.523
 c 123.301 27.234 123.5 26.805 123.5 26.242 c 123.5 25.734 123.316 25.332
 122.953 25.039 c 122.586 24.75 122.086 24.602 121.453 24.602 c 120.422 
24.602 l 120.422 23.633 l 121.5 23.633 l 122.07 23.633 122.516 23.52 122.828
 23.289 c 123.141 23.051 123.297 22.711 123.297 22.273 c 123.297 21.828 
123.133 21.484 122.813 21.242 c 122.5 21.004 122.047 20.883 121.453 20.883
 c 121.117 20.883 120.766 20.922 120.391 20.992 c 120.023 21.055 119.617
 21.16 119.172 21.305 c 119.172 20.258 l 119.629 20.133 120.051 20.039 120.438
 19.977 c 120.832 19.914 121.203 19.883 121.547 19.883 c 122.453 19.883 
123.164 20.086 123.688 20.492 c 124.207 20.898 124.469 21.453 124.469 22.148
 c 124.469 22.641 124.328 23.051 124.047 23.383 c 123.773 23.719 123.383
 23.945 122.875 24.07 c h
122.875 24.07 m f
17.223 19.746 m 14.238 24.418 l 17.223 24.418 l h
16.91 18.715 m 18.41 18.715 l 18.41 24.418 l 19.66 24.418 l 19.66 25.402
 l 18.41 25.402 l 18.41 27.465 l 17.223 27.465 l 17.223 25.402 l 13.285 
25.402 l 13.285 24.262 l h
16.91 18.715 m f
39.906 47.727 m 38.297 52.07 l 41.516 52.07 l h
39.234 46.555 m 40.578 46.555 l 43.906 55.305 l 42.672 55.305 l 41.875 
53.055 l 37.938 53.055 l 37.141 55.305 l 35.891 55.305 l h
39.234 46.555 m f
45.5 57.066 m 48.188 57.066 l 48.188 57.707 l 44.578 57.707 l 44.578 57.066
 l 44.867 56.766 45.266 56.359 45.766 55.848 c 46.266 55.34 46.582 55.012
 46.719 54.863 c 46.957 54.582 47.125 54.348 47.219 54.16 c 47.32 53.965
 47.375 53.777 47.375 53.598 c 47.375 53.297 47.266 53.051 47.047 52.863
 c 46.836 52.668 46.566 52.566 46.234 52.566 c 45.992 52.566 45.738 52.609
 45.469 52.691 c 45.195 52.777 44.91 52.902 44.609 53.066 c 44.609 52.301
 l 44.922 52.176 45.207 52.082 45.469 52.02 c 45.738 51.957 45.988 51.926
 46.219 51.926 c 46.801 51.926 47.27 52.074 47.625 52.363 c 47.977 52.656
 48.156 53.047 48.156 53.535 c 48.156 53.777 48.109 54 48.016 54.207 c 47.93
 54.418 47.773 54.66 47.547 54.941 c 47.484 55.016 47.281 55.23 46.938 55.582
 c 46.594 55.938 46.113 56.434 45.5 57.066 c h
45.5 57.066 m f
93.52 47.684 m 91.91 52.027 l 95.129 52.027 l h
92.848 46.512 m 94.191 46.512 l 97.52 55.262 l 96.285 55.262 l 95.488 53.012
 l 91.551 53.012 l 90.754 55.262 l 89.504 55.262 l h
92.848 46.512 m f
98.582 57.02 m 99.832 57.02 l 99.832 52.676 l 98.473 52.957 l 98.473 52.254
 l 99.832 51.973 l 100.598 51.973 l 100.598 57.02 l 101.848 57.02 l 101.848
 57.66 l 98.582 57.66 l h
98.582 57.02 m f
45.98 98.063 m 44.371 102.406 l 47.59 102.406 l h
45.309 96.891 m 46.652 96.891 l 49.98 105.641 l 48.746 105.641 l 47.949
 103.391 l 44.012 103.391 l 43.215 105.641 l 41.965 105.641 l h
45.309 96.891 m f
53.23 104.98 m 53.605 105.055 53.895 105.215 54.105 105.465 c 54.313 105.715
 54.418 106.023 54.418 106.387 c 54.418 106.949 54.219 107.387 53.824 107.699
 c 53.438 108.004 52.891 108.152 52.184 108.152 c 51.941 108.152 51.699 
108.125 51.449 108.074 c 51.199 108.035 50.938 107.965 50.668 107.871 c 
50.668 107.137 l 50.875 107.254 51.105 107.348 51.355 107.418 c 51.613 107.48
 51.887 107.512 52.168 107.512 c 52.645 107.512 53.012 107.418 53.262 107.23
 c 53.52 107.035 53.652 106.754 53.652 106.387 c 53.652 106.055 53.531 105.793
 53.293 105.605 c 53.051 105.418 52.723 105.324 52.309 105.324 c 51.652 
105.324 l 51.652 104.684 l 52.34 104.684 l 52.723 104.684 53.016 104.613
 53.215 104.465 c 53.41 104.309 53.512 104.09 53.512 103.809 c 53.512 103.52
 53.406 103.293 53.199 103.137 c 52.988 102.98 52.691 102.902 52.309 102.902
 c 52.098 102.902 51.875 102.93 51.637 102.98 c 51.395 103.023 51.129 103.09
 50.84 103.184 c 50.84 102.496 l 51.129 102.414 51.402 102.355 51.652 102.324
 c 51.91 102.285 52.156 102.262 52.387 102.262 c 52.969 102.262 53.426 102.398
 53.762 102.668 c 54.105 102.93 54.277 103.285 54.277 103.73 c 54.277 104.043
 54.184 104.309 53.996 104.527 c 53.816 104.746 53.563 104.898 53.23 104.98
 c h
53.23 104.98 m f
93.707 97.875 m 92.098 102.219 l 95.316 102.219 l h
93.035 96.703 m 94.379 96.703 l 97.707 105.453 l 96.473 105.453 l 95.676
 103.203 l 91.738 103.203 l 90.941 105.453 l 89.691 105.453 l h
93.035 96.703 m f
100.754 102.836 m 98.801 105.867 l 100.754 105.867 l h
100.551 102.164 m 101.52 102.164 l 101.52 105.867 l 102.316 105.867 l 102.316
 106.508 l 101.52 106.508 l 101.52 107.852 l 100.754 107.852 l 100.754 106.508
 l 98.176 106.508 l 98.176 105.773 l h
100.551 102.164 m f
27.949 77.395 m 27.949 80.301 l 27.043 80.301 l 27.043 72.754 l 27.949 
72.754 l 27.949 73.582 l 28.137 73.262 28.371 73.02 28.652 72.863 c 28.941
 72.707 29.293 72.629 29.699 72.629 c 30.363 72.629 30.902 72.895 31.309
 73.426 c 31.723 73.949 31.934 74.637 31.934 75.488 c 31.934 76.355 31.723
 77.051 31.309 77.582 c 30.902 78.105 30.363 78.363 29.699 78.363 c 29.293
 78.363 28.941 78.285 28.652 78.129 c 28.371 77.973 28.137 77.73 27.949 
77.395 c h
31.012 75.488 m 31.012 74.832 30.871 74.316 30.59 73.941 c 30.316 73.566
 29.949 73.379 29.48 73.379 c 29 73.379 28.625 73.566 28.355 73.941 c 28.082
 74.316 27.949 74.832 27.949 75.488 c 27.949 76.156 28.082 76.676 28.355
 77.051 c 28.625 77.426 29 77.613 29.48 77.613 c 29.949 77.613 30.316 77.426
 30.59 77.051 c 30.871 76.676 31.012 76.156 31.012 75.488 c h
31.012 75.488 m f
35.578 70.629 m 35.148 71.379 34.828 72.125 34.609 72.863 c 34.398 73.594
 34.297 74.332 34.297 75.082 c 34.297 75.832 34.398 76.578 34.609 77.316
 c 34.828 78.059 35.148 78.793 35.578 79.535 c 34.797 79.535 l 34.316 78.773
 33.953 78.027 33.703 77.285 c 33.461 76.547 33.344 75.813 33.344 75.082
 c 33.344 74.355 33.461 73.625 33.703 72.895 c 33.941 72.156 34.305 71.402
 34.797 70.629 c h
35.578 70.629 m f
41.875 72.754 m 39.906 75.41 l 41.984 78.223 l 40.922 78.223 l 39.328 76.066
 l 37.734 78.223 l 36.672 78.223 l 38.797 75.363 l 36.859 72.754 l 37.922
 72.754 l 39.375 74.707 l 40.813 72.754 l h
41.875 72.754 m f
43.121 79.676 m 44.168 79.676 l 44.168 76.066 l 43.027 76.301 l 43.027 
75.707 l 44.152 75.488 l 44.793 75.488 l 44.793 79.676 l 45.84 79.676 l 
45.84 80.223 l 43.121 80.223 l h
43.121 79.676 m f
47.621 76.988 m 48.652 76.988 l 48.652 77.816 l 47.855 79.379 l 47.215 
79.379 l 47.621 77.816 l h
47.621 76.988 m f
55.117 72.754 m 53.148 75.41 l 55.227 78.223 l 54.164 78.223 l 52.57 76.066
 l 50.977 78.223 l 49.914 78.223 l 52.039 75.363 l 50.102 72.754 l 51.164
 72.754 l 52.617 74.707 l 54.055 72.754 l h
55.117 72.754 m f
56.801 79.676 m 59.035 79.676 l 59.035 80.223 l 56.02 80.223 l 56.02 79.676
 l 56.27 79.426 56.602 79.094 57.02 78.676 c 57.434 78.25 57.699 77.973 
57.816 77.848 c 58.023 77.621 58.164 77.426 58.238 77.27 c 58.32 77.105 
58.363 76.941 58.363 76.785 c 58.363 76.535 58.273 76.332 58.098 76.176 
c 57.918 76.02 57.691 75.941 57.41 75.941 c 57.211 75.941 56.996 75.98 56.77
 76.051 c 56.551 76.113 56.316 76.219 56.066 76.363 c 56.066 75.707 l 56.316
 75.605 56.551 75.527 56.77 75.473 c 56.996 75.422 57.207 75.395 57.395 
75.395 c 57.883 75.395 58.273 75.52 58.566 75.77 c 58.855 76.012 59.004 
76.34 59.004 76.754 c 59.004 76.941 58.965 77.125 58.895 77.301 c 58.82 
77.48 58.691 77.688 58.504 77.926 c 58.449 77.988 58.277 78.168 57.988 78.457
 c 57.707 78.75 57.309 79.156 56.801 79.676 c h
56.801 79.676 m f
60.484 70.629 m 61.266 70.629 l 61.754 71.402 62.117 72.156 62.359 72.895
 c 62.609 73.625 62.734 74.355 62.734 75.082 c 62.734 75.813 62.609 76.547
 62.359 77.285 c 62.117 78.027 61.754 78.773 61.266 79.535 c 60.484 79.535
 l 60.922 78.793 61.242 78.059 61.453 77.316 c 61.672 76.578 61.781 75.832
 61.781 75.082 c 61.781 74.332 61.672 73.594 61.453 72.863 c 61.242 72.125
 60.922 71.379 60.484 70.629 c h
60.484 70.629 m f
Q Q
showpage
%%Trailer
end
%%EOF
