%!PS-Adobe-3.0 EPSF-3.0
%%Creator: cairo 1.16.0 (https://cairographics.org)
%%CreationDate: Wed Oct 07 12:01:13 2020
%%Pages: 1
%%DocumentData: Clean7Bit
%%LanguageLevel: 2
%%BoundingBox: 6 7 205 57
%%EndComments
%%BeginProlog
50 dict begin
/q { gsave } bind def
/Q { grestore } bind def
/cm { 6 array astore concat } bind def
/w { setlinewidth } bind def
/J { setlinecap } bind def
/j { setlinejoin } bind def
/M { setmiterlimit } bind def
/d { setdash } bind def
/m { moveto } bind def
/l { lineto } bind def
/c { curveto } bind def
/h { closepath } bind def
/re { exch dup neg 3 1 roll 5 3 roll moveto 0 rlineto
      0 exch rlineto 0 rlineto closepath } bind def
/S { stroke } bind def
/f { fill } bind def
/f* { eofill } bind def
/n { newpath } bind def
/W { clip } bind def
/W* { eoclip } bind def
/BT { } bind def
/ET { } bind def
/BDC { mark 3 1 roll /BDC pdfmark } bind def
/EMC { mark /EMC pdfmark } bind def
/cairo_store_point { /cairo_point_y exch def /cairo_point_x exch def } def
/Tj { show currentpoint cairo_store_point } bind def
/TJ {
  {
    dup
    type /stringtype eq
    { show } { -0.001 mul 0 cairo_font_matrix dtransform rmoveto } ifelse
  } forall
  currentpoint cairo_store_point
} bind def
/cairo_selectfont { cairo_font_matrix aload pop pop pop 0 0 6 array astore
    cairo_font exch selectfont cairo_point_x cairo_point_y moveto } bind def
/Tf { pop /cairo_font exch def /cairo_font_matrix where
      { pop cairo_selectfont } if } bind def
/Td { matrix translate cairo_font_matrix matrix concatmatrix dup
      /cairo_font_matrix exch def dup 4 get exch 5 get cairo_store_point
      /cairo_font where { pop cairo_selectfont } if } bind def
/Tm { 2 copy 8 2 roll 6 array astore /cairo_font_matrix exch def
      cairo_store_point /cairo_font where { pop cairo_selectfont } if } bind def
/g { setgray } bind def
/rg { setrgbcolor } bind def
/d1 { setcachedevice } bind def
/cairo_data_source {
  CairoDataIndex CairoData length lt
    { CairoData CairoDataIndex get /CairoDataIndex CairoDataIndex 1 add def }
    { () } ifelse
} def
/cairo_flush_ascii85_file { cairo_ascii85_file status { cairo_ascii85_file flushfile } if } def
/cairo_image { image cairo_flush_ascii85_file } def
/cairo_imagemask { imagemask cairo_flush_ascii85_file } def
%%EndProlog
%%BeginSetup
%%EndSetup
%%Page: 1 1
%%BeginPageSetup
%%PageBoundingBox: 6 7 205 57
%%EndPageSetup
q 6 7 199 50 rectclip
1 0 0 -1 0 71 cm q
0 g
49.766 27.305 m 49.766 29.898 49.078 31.813 47.703 33.039 c 46.328 34.27
 44.297 34.883 41.609 34.883 c 36.625 34.883 l 36.625 47.945 l 32.438 47.945
 l 32.438 14.352 l 41.516 14.352 l 44.234 14.352 46.285 14.953 47.672 16.148
 c 49.066 17.348 49.766 19.242 49.766 21.836 c h
45.594 21.398 m 45.594 20.18 45.313 19.301 44.75 18.758 c 44.195 18.219
 43.313 17.945 42.094 17.945 c 36.625 17.945 l 36.625 31.289 l 42.094 31.289
 l 43.313 31.289 44.195 31.008 44.75 30.445 c 45.313 29.883 45.594 29 45.594
 27.789 c h
45.594 21.398 m f
75.641 27.305 m 75.641 29.898 74.953 31.813 73.578 33.039 c 72.203 34.27
 70.172 34.883 67.484 34.883 c 62.5 34.883 l 62.5 47.945 l 58.313 47.945
 l 58.313 14.352 l 67.391 14.352 l 70.109 14.352 72.16 14.953 73.547 16.148
 c 74.941 17.348 75.641 19.242 75.641 21.836 c h
71.469 21.398 m 71.469 20.18 71.188 19.301 70.625 18.758 c 70.07 18.219
 69.188 17.945 67.969 17.945 c 62.5 17.945 l 62.5 31.289 l 67.969 31.289
 l 69.188 31.289 70.07 31.008 70.625 30.445 c 71.188 29.883 71.469 29 71.469
 27.789 c h
71.469 21.398 m f
99.891 47.945 m 99.473 47.945 99.016 47.82 98.516 47.57 c 98.023 47.313
 97.602 46.957 97.25 46.508 c 96.508 47.469 95.535 47.945 94.328 47.945 
c 90.047 47.945 l 87.617 47.945 85.852 47.461 84.75 46.492 c 83.645 45.516
 83.094 43.836 83.094 41.461 c 83.094 40.508 l 83.094 35.551 85.426 33.07
 90.094 33.07 c 96.047 33.07 l 96.047 30.664 l 96.047 29.676 95.742 28.91
 95.141 28.367 c 94.535 27.816 93.641 27.539 92.453 27.539 c 85.016 27.539
 l 85.016 23.945 l 91.969 23.945 l 94.75 23.945 96.801 24.555 98.125 25.773
 c 99.457 26.984 100.125 28.938 100.125 31.633 c 100.125 43.148 l 100.125
 43.629 100.305 43.988 100.672 44.227 c 101.047 44.469 101.664 44.586 102.531
 44.586 c 102.531 47.945 l h
93.844 44.352 m 94.801 44.352 95.406 44.129 95.656 43.68 c 95.914 43.234
 96.047 42.656 96.047 41.945 c 96.047 36.664 l 90.047 36.664 l 89.211 36.664
 88.523 36.941 87.984 37.492 c 87.441 38.035 87.172 38.719 87.172 39.539
 c 87.172 41.945 l 87.172 42.781 87.363 43.391 87.75 43.773 c 88.133 44.16
 88.742 44.352 89.578 44.352 c h
93.844 44.352 m f
114.047 44.352 m 114.047 27.539 l 110.547 27.539 l 110.547 23.945 l 117.891
 23.945 l 117.891 25.242 l 118.953 24.379 120.234 23.945 121.734 23.945 
c 126.672 23.945 l 126.672 27.789 l 121.25 27.789 l 120.227 27.789 119.461
 28.117 118.953 28.773 c 118.441 29.43 118.172 30.094 118.141 30.758 c 118.141
 44.352 l 123.359 44.352 l 123.359 47.945 l 110.547 47.945 l 110.547 44.352
 l h
114.047 44.352 m f
146.359 47.945 m 144.723 47.945 143.473 47.422 142.609 46.367 c 141.754
 45.305 141.328 43.91 141.328 42.18 c 141.328 27.539 l 136.766 27.539 l 
136.766 23.945 l 141.328 23.945 l 141.328 18.18 l 145.406 18.18 l 145.406
 23.945 l 152.406 23.945 l 152.406 27.539 l 145.406 27.539 l 145.406 42.43
 l 145.406 43.129 145.578 43.625 145.922 43.914 c 146.273 44.207 146.82 
44.352 147.563 44.352 c 152.406 44.352 l 152.406 47.945 l h
146.359 47.945 m f
172.719 14.352 m 172.719 18.664 l 168.156 18.664 l 168.156 14.352 l h
161.344 27.539 m 161.344 23.945 l 172.469 23.945 l 172.469 44.352 l 179.578
 44.352 l 179.578 47.945 l 168.391 47.945 l 168.391 27.539 l h
161.344 27.539 m f
197.25 47.945 m 194.469 47.945 192.332 47.27 190.844 45.914 c 189.352 44.551
 188.609 42.508 188.609 39.789 c 188.609 22.508 l 188.609 19.789 189.352
 17.754 190.844 16.398 c 192.332 15.035 194.469 14.352 197.25 14.352 c 204.063
 14.352 l 204.063 17.992 l 196.766 17.992 l 195.578 17.992 194.613 18.348
 193.875 19.055 c 193.145 19.754 192.781 20.598 192.781 21.586 c 192.781
 40.695 l 192.781 41.688 193.145 42.535 193.875 43.242 c 194.613 43.953 
195.578 44.305 196.766 44.305 c 204.063 44.305 l 204.063 47.945 l h
197.25 47.945 m f
0.831373 0 0 rg
17.277 53.707 m 17.277 56.629 14.91 58.996 11.988 58.996 c 9.066 58.996
 6.695 56.629 6.695 53.707 c 6.695 50.785 9.066 48.414 11.988 48.414 c 14.91
 48.414 17.277 50.785 17.277 53.707 c f
0 0 0.501961 rg
23.906 61.84 m 23.906 62.969 22.992 63.883 21.863 63.883 c 20.734 63.883
 19.82 62.969 19.82 61.84 c 19.82 60.715 20.734 59.801 21.863 59.801 c 22.992
 59.801 23.906 60.715 23.906 61.84 c f
0.596078 g
0.751181 w
0 J
0 j
[] 0.0 d
4 M q 1 0 0 1 0 0 cm
16.941 50.758 m 29.465 47.813 l S Q
27.848 47.258 m 30.453 47.578 l 28.262 49.023 l 28.523 48.41 28.355 47.699
 27.848 47.258 c h
27.848 47.258 m f*
0.137102 w
1 j
q -1 0.235294 -0.235294 -1 0 0 cm
-15.851 -50.987 m -18.248 -51.872 l -15.849 -52.753 l -16.234 -52.23 -16.233
 -51.519 -15.851 -50.987 c h
-15.851 -50.987 m S Q
0.6 g
0.751178 w
0 j
q 1 0 0 1 0 0 cm
23.234 59.613 m 30.398 49.301 l S Q
28.824 49.969 m 30.973 48.461 l 30.313 51 l 30.098 50.375 29.496 49.957
 28.824 49.969 c h
28.824 49.969 m f*
0.115667 w
1 j
q -0.694805 1 -1 -0.694805 0 0 cm
20.193 -42.855 m 18.17 -43.597 l 20.191 -44.342 l 19.87 -43.904 19.87 -43.302
 20.193 -42.855 c h
20.193 -42.855 m S Q
Q Q
showpage
%%Trailer
end
%%EOF
